%YAML 1.1
%TAG !u! tag:unity3d.com,2011:
--- !u!1 &8217682326777042268
GameObject:
  m_ObjectHideFlags: 0
  m_CorrespondingSourceObject: {fileID: 0}
  m_PrefabInstance: {fileID: 0}
  m_PrefabAsset: {fileID: 0}
  serializedVersion: 6
  m_Component:
  - component: {fileID: 8217682326777042269}
  - component: {fileID: 8217682326777042271}
  - component: {fileID: 8217682326777042270}
  - component: {fileID: 2212020562960517091}
  m_Layer: 0
  m_Name: Meat
  m_TagString: "Ingredi\xEBnt"
  m_Icon: {fileID: 0}
  m_NavMeshLayer: 0
  m_StaticEditorFlags: 0
  m_IsActive: 1
--- !u!224 &8217682326777042269
RectTransform:
  m_ObjectHideFlags: 0
  m_CorrespondingSourceObject: {fileID: 0}
  m_PrefabInstance: {fileID: 0}
  m_PrefabAsset: {fileID: 0}
  m_GameObject: {fileID: 8217682326777042268}
  m_LocalRotation: {x: 0, y: 0, z: 0, w: 1}
  m_LocalPosition: {x: 0, y: 0, z: 0}
  m_LocalScale: {x: 1, y: 1, z: 1}
  m_Children: []
  m_Father: {fileID: 0}
  m_RootOrder: 0
  m_LocalEulerAnglesHint: {x: 0, y: 0, z: 0}
  m_AnchorMin: {x: 0, y: 0}
  m_AnchorMax: {x: 0, y: 0}
  m_AnchoredPosition: {x: 0, y: -0}
  m_SizeDelta: {x: 100, y: 100}
  m_Pivot: {x: 0, y: 1}
--- !u!222 &8217682326777042271
CanvasRenderer:
  m_ObjectHideFlags: 0
  m_CorrespondingSourceObject: {fileID: 0}
  m_PrefabInstance: {fileID: 0}
  m_PrefabAsset: {fileID: 0}
  m_GameObject: {fileID: 8217682326777042268}
  m_CullTransparentMesh: 1
--- !u!114 &8217682326777042270
MonoBehaviour:
  m_ObjectHideFlags: 0
  m_CorrespondingSourceObject: {fileID: 0}
  m_PrefabInstance: {fileID: 0}
  m_PrefabAsset: {fileID: 0}
  m_GameObject: {fileID: 8217682326777042268}
  m_Enabled: 1
  m_EditorHideFlags: 0
  m_Script: {fileID: 11500000, guid: fe87c0e1cc204ed48ad3b37840f39efc, type: 3}
  m_Name: 
  m_EditorClassIdentifier: 
  m_Material: {fileID: 0}
  m_Color: {r: 1, g: 1, b: 1, a: 1}
  m_RaycastTarget: 1
  m_RaycastPadding: {x: 0, y: 0, z: 0, w: 0}
  m_Maskable: 1
  m_OnCullStateChanged:
    m_PersistentCalls:
      m_Calls: []
  m_Sprite: {fileID: -5882474730054979574, guid: 234affcd525be0c47b15581eced3d86c,
    type: 3}
  m_Type: 0
  m_PreserveAspect: 0
  m_FillCenter: 1
  m_FillMethod: 4
  m_FillAmount: 1
  m_FillClockwise: 1
  m_FillOrigin: 0
  m_UseSpriteMesh: 0
  m_PixelsPerUnitMultiplier: 1
--- !u!60 &2212020562960517091
PolygonCollider2D:
  m_ObjectHideFlags: 0
  m_CorrespondingSourceObject: {fileID: 0}
  m_PrefabInstance: {fileID: 0}
  m_PrefabAsset: {fileID: 0}
  m_GameObject: {fileID: 8217682326777042268}
  m_Enabled: 1
  m_Density: 1
  m_Material: {fileID: 0}
  m_IsTrigger: 0
  m_UsedByEffector: 0
  m_UsedByComposite: 0
  m_Offset: {x: -41.55, y: 66.4}
  m_SpriteTilingProperty:
    border: {x: 0, y: 0, z: 0, w: 0}
    pivot: {x: 0, y: 0}
    oldSize: {x: 0, y: 0}
    newSize: {x: 0, y: 0}
    adaptiveTilingThreshold: 0
    drawMode: 0
    adaptiveTiling: 0
  m_AutoTiling: 0
  m_Points:
    m_Paths:
    - - {x: 99.22412, y: 16.384914}
      - {x: 98.79413, y: 26.024952}
      - {x: 96.71684, y: 29.651096}
      - {x: 92.68201, y: 31.841438}
      - {x: 70.73486, y: 34.184647}
      - {x: 58.8028, y: 30.210388}
      - {x: 50.62232, y: 24.1716}
      - {x: 42.28101, y: 19.54737}
      - {x: 28.245975, y: 7.840248}
      - {x: 18.978886, y: 0.39253998}
      - {x: 0.5703621, y: -11.257549}
      - {x: -19.204342, y: -31.985256}
      - {x: -29.456173, y: -41.697155}
      - {x: -45.915157, y: -55.695614}
      - {x: -55.178646, y: -70.86441}
      - {x: -58.87544, y: -82.60329}
      - {x: -49.787045, y: -108.928986}
      - {x: -34.833496, y: -119.343735}
      - {x: -1.97052, y: -136.8459}
      - {x: 29.088245, y: -148.54678}
      - {x: 34.475407, y: -149.59506}
      - {x: 35.64307, y: -149.96646}
      - {x: 37.39716, y: -149.96288}
      - {x: 38.65241, y: -149.49211}
      - {x: 40.660587, y: -149.06087}
      - {x: 44.220768, y: -146.01503}
      - {x: 49.935673, y: -139.25656}
      - {x: 53.818363, y: -138.88301}
      - {x: 58.753544, y: -140.7976}
      - {x: 58.4195, y: -157.54636}
      - {x: 75.12842, y: -161.00146}
      - {x: 86.139404, y: -159.67151}
      - {x: 101.38011, y: -162.5374}
      - {x: 109.21808, y: -167.60132}
      - {x: 120.11853, y: -151.23384}
      - {x: 136.54573, y: -104.20465}
      - {x: 141.86298, y: -60.644375}
      - {x: 134.52441, y: -43.586742}
      - {x: 118.712524, y: -23.550274}
      - {x: 106.00098, y: -11.250111}
      - {x: 101.27344, y: 2.3283348}
