%YAML 1.1
%TAG !u! tag:unity3d.com,2011:
--- !u!1 &376134519287557878
GameObject:
  m_ObjectHideFlags: 0
  m_CorrespondingSourceObject: {fileID: 0}
  m_PrefabInstance: {fileID: 0}
  m_PrefabAsset: {fileID: 0}
  serializedVersion: 6
  m_Component:
  - component: {fileID: 376134519287557879}
  - component: {fileID: 376134519287557873}
  - component: {fileID: 376134519287557872}
  - component: {fileID: 716915801017682019}
  m_Layer: 0
  m_Name: Tomato
  m_TagString: "Ingredi\xEBnt"
  m_Icon: {fileID: 0}
  m_NavMeshLayer: 0
  m_StaticEditorFlags: 0
  m_IsActive: 1
--- !u!224 &376134519287557879
RectTransform:
  m_ObjectHideFlags: 0
  m_CorrespondingSourceObject: {fileID: 0}
  m_PrefabInstance: {fileID: 0}
  m_PrefabAsset: {fileID: 0}
  m_GameObject: {fileID: 376134519287557878}
  m_LocalRotation: {x: 0, y: 0, z: 0, w: 1}
  m_LocalPosition: {x: 0, y: 0, z: 0}
  m_LocalScale: {x: 1, y: 1, z: 1}
  m_Children: []
  m_Father: {fileID: 0}
  m_RootOrder: 0
  m_LocalEulerAnglesHint: {x: 0, y: 0, z: 0}
  m_AnchorMin: {x: 0, y: 0}
  m_AnchorMax: {x: 0, y: 0}
  m_AnchoredPosition: {x: 0, y: 0}
  m_SizeDelta: {x: 100, y: 100}
  m_Pivot: {x: 0.5, y: 0.5}
--- !u!222 &376134519287557873
CanvasRenderer:
  m_ObjectHideFlags: 0
  m_CorrespondingSourceObject: {fileID: 0}
  m_PrefabInstance: {fileID: 0}
  m_PrefabAsset: {fileID: 0}
  m_GameObject: {fileID: 376134519287557878}
  m_CullTransparentMesh: 1
--- !u!114 &376134519287557872
MonoBehaviour:
  m_ObjectHideFlags: 0
  m_CorrespondingSourceObject: {fileID: 0}
  m_PrefabInstance: {fileID: 0}
  m_PrefabAsset: {fileID: 0}
  m_GameObject: {fileID: 376134519287557878}
  m_Enabled: 1
  m_EditorHideFlags: 0
  m_Script: {fileID: 11500000, guid: fe87c0e1cc204ed48ad3b37840f39efc, type: 3}
  m_Name: 
  m_EditorClassIdentifier: 
  m_Material: {fileID: 0}
  m_Color: {r: 1, g: 1, b: 1, a: 1}
  m_RaycastTarget: 1
  m_RaycastPadding: {x: 0, y: 0, z: 0, w: 0}
  m_Maskable: 1
  m_OnCullStateChanged:
    m_PersistentCalls:
      m_Calls: []
  m_Sprite: {fileID: -1974970344591866264, guid: 67c4b95a214be614bbc1fc877e553785,
    type: 3}
  m_Type: 0
  m_PreserveAspect: 0
  m_FillCenter: 1
  m_FillMethod: 4
  m_FillAmount: 1
  m_FillClockwise: 1
  m_FillOrigin: 0
  m_UseSpriteMesh: 0
  m_PixelsPerUnitMultiplier: 1
--- !u!60 &716915801017682019
PolygonCollider2D:
  m_ObjectHideFlags: 0
  m_CorrespondingSourceObject: {fileID: 0}
  m_PrefabInstance: {fileID: 0}
  m_PrefabAsset: {fileID: 0}
  m_GameObject: {fileID: 376134519287557878}
  m_Enabled: 1
  m_Density: 1
  m_Material: {fileID: 0}
  m_IsTrigger: 0
  m_UsedByEffector: 0
  m_UsedByComposite: 0
  m_Offset: {x: 0, y: 0}
  m_SpriteTilingProperty:
    border: {x: 0, y: 0, z: 0, w: 0}
    pivot: {x: 0, y: 0}
    oldSize: {x: 0, y: 0}
    newSize: {x: 0, y: 0}
    adaptiveTilingThreshold: 0
    drawMode: 0
    adaptiveTiling: 0
  m_AutoTiling: 0
  m_Points:
    m_Paths:
    - - {x: 4.9140625, y: 45.768776}
      - {x: -12.956672, y: 49.75101}
      - {x: -30.260515, y: 52.294117}
      - {x: -48.14502, y: 51.95125}
      - {x: -69.61096, y: 50.21122}
      - {x: -87.49225, y: 39.47106}
      - {x: -99.14307, y: 6.395134}
      - {x: -98.87488, y: -38.738953}
      - {x: -90.54541, y: -63.698578}
      - {x: -81.58826, y: -76.3275}
      - {x: -62.76953, y: -86.46567}
      - {x: -43.322754, y: -95.10124}
      - {x: -21.504272, y: -99.9935}
      - {x: -8.324341, y: -100.2225}
      - {x: 13.28833, y: -100.31131}
      - {x: 35.460327, y: -96.42381}
      - {x: 59.34375, y: -90.53169}
      - {x: 74.847534, y: -81.76199}
      - {x: 86.09827, y: -68.88782}
      - {x: 94.03285, y: -48.34692}
      - {x: 99.892456, y: -27.5607}
      - {x: 97.531006, y: 1.729248}
      - {x: 92.35095, y: 22.35672}
      - {x: 83.46069, y: 33.869354}
      - {x: 73.96887, y: 40.32144}
      - {x: 53.969116, y: 49.92215}
      - {x: 36.96692, y: 50.567413}
      - {x: 22.34034, y: 49.84866}
