﻿Key,Description,Standard,GR,GE,SL,FR,DU
SAY.Scenario1.8.Playground Heroes,,"Abdoul is from Senegal. He can speak French very well, but he is now learning English in school.",greek words,,,,
SAY.Scenario1.9.Playground Heroes,,He is randomly chosen to read the instructions for building the play park. ,,,,,
SAY.Scenario1.10.Playground Heroes,,He starts reading and...,,,,,
SAY.Scenario1.11.Ann,,"{punch=2,0.5}OH NO! NOT HIM!\nIT WILL BE MORNING BY THE TIME HE FINISHES!",,,,,
SAY.Scenario1.13.Freddy,,Such a snail-reader! And st-st-st- stuttering too!,,,,,
SAY.Scenario1.14.Playground Heroes,,EMERGENCY!\nTHERE IS A PROBLEM IN YOUR TEAM!\nWHAT ARE YOU THINKING {color=yellow}{b}{$userName}{/b}{/color}?,,,,,
MENU.Scenario1.15,,"Ann's rude! But she is honest, Abdoul is slow as a snail!",,,,,
MENU.Scenario1.17,,How terrible to speak to someone like that! I will need to say somthing to Ann.,,,,,
MENU.Scenario1.16,,"What Ann said was harsh, but she cares that the team wins.",,,,,
SAY.Scenario1.39.Janet,,"{punch=2,0.5}ANN! Was that really necessary?!\nWe have plenty of time to do this!{1,1}",,,,,
SAY.Scenario1.40.Ann,,Oh...why are you upset? Do you like Abdoul? hehehe!,,,,,
SAY.Scenario1.41.Janet,,"Whatever! Adboul, don't worry. Take your time. You are learning a new language and you are doing great!",,,,,
SAY.Scenario1.42.Janet,,I can help you read some words you don't know yet. ,,,,,
SAY.Scenario1.44.Abdoul,,"Yes, please. Learning another language is not easy but I am doing my best!\nThanks for helping, Janet.",,,,,
SAY.Scenario1.43.Nick,,"Great guys! Let's help each other, stick together and build a fantastic playground!",,,,,
SAY.Scenario1.47.Playground Heroes,,PROBLEM SORTED!\nLET'S BUILD!,,,,,
SAY.Scenario1.19.Playground Heroes,,Everyone is good and not so good at something. ,,,,,
SAY.Scenario1.20.Playground Heroes,,Insulting people does NOT help and can make people feel BAD.,,,,,
SAY.Scenario1.21.Playground Heroes,,This was the {color=#F18482}WORST{/color} choice. Try something that helps the team stick together next time. ,,,,,
SAY.Scenario1.23.Playground Heroes,,Because of this your TEAM earned {color=#F18482}VERY FEW{/color} materials for building the playground. ,,,,,
SAY.Scenario1.25.Playground Heroes,,Being kind and supporting people in the team matters more than winning!,,,,,
SAY.Scenario1.27.Playground Heroes,,This was a {color=#F6E482}POOR{/color} choice. Try something that helps the team stick together next time. ,,,,,
SAY.Scenario1.29.Playground Heroes,,Because of this your TEAM earned only {color=#F6E482}SOME{/color} materials for building the playground. ,,,,,
SAY.Scenario1.31.Playground Heroes,,{color=#A1D396}{b}WELL DONE{/b}{/color}! You definitely get the point! Ann said mean things to Abdoul.,,,,,
SAY.Scenario1.32.Playground Heroes,,{color=#A1D396}{b}GREAT CHOICE{/b}{/color}! Your choice helped the team stick together!,,,,,
SAY.Scenario1.35.Playground Heroes,,Because of this your TEAM earned {b}{color=#A1D396}MANY{/color}{/b} materials for building the playground. ,,,,,
CHARACTER.Andy,,Andy,,,,,
CHARACTER.Ann,,Ann,,,,,
CHARACTER.Playground Heroes,,Playground Heroes,,,,,
CHARACTER.Freddy,,Freddy,,,,,
CHARACTER.Fatima,,Fatima,,,,,
CHARACTER.Janet,,Janet,,,,,
CHARACTER.Nick,,Nick,,,,,
CHARACTER.Abdoul,,Abdoul,,,,,

