Key,Description,Standard,GR,GE,SL,FR,DU
SAY.Scenario1GoodEnd.8.Playground Heroes,,You completed the first episode of Playground heroes!,,,,,
SAY.Scenario1GoodEnd.68.Playground Heroes,,Your team has built...,,,,,
SAY.Scenario1GoodEnd.71.Playground Heroes,,...,,,,,
SAY.Scenario1GoodEnd.70.Playground Heroes,,...,,,,,
SAY.Scenario1GoodEnd.69.Playground Heroes,,A {color=lime}{b}FANTASTIC{/b}{/color} playground!,,,,,
SAY.Scenario1GoodEnd.73.Playground Heroes,,You have contributed MASSIVELY to your team’s success!,,,,,
SAY.Scenario1GoodEnd.74.Playground Heroes,,You are an incredible asset for your team!,,,,,
SAY.Scenario1GoodEnd.75.,,{size=100}{b}Your title is: {color=lime}SUPER HERO!{/color}{/b}{/size} \nSee you next time!,,,,,
CHARACTER.Andy,,Andy,,,,,
CHARACTER.Ann,,Ann,,,,,
CHARACTER.Playground Heroes,,Playground Heroes,,,,,
CHARACTER.Freddy,,Freddy,,,,,
CHARACTER.Fatima,,Fatima,,,,,
CHARACTER.Janet,,Janet,,,,,
CHARACTER.Nick,,Nick,,,,,
CHARACTER.Abdoul,,Abdoul,,,,,
