%YAML 1.1
%TAG !u! tag:unity3d.com,2011:
--- !u!114 &11400000
MonoBehaviour:
  m_ObjectHideFlags: 0
  m_CorrespondingSourceObject: {fileID: 0}
  m_PrefabInstance: {fileID: 0}
  m_PrefabAsset: {fileID: 0}
  m_GameObject: {fileID: 0}
  m_Enabled: 1
  m_EditorHideFlags: 0
  m_Script: {fileID: 11500000, guid: 745b525ddb79a5f4093aad57af6dcade, type: 3}
  m_Name: Onion
  m_EditorClassIdentifier: 
  naam: Onion
  IngredientSprite: {fileID: 6634478419528262077, guid: c46c32db58fa0004bb865f51279c602b,
    type: 3}
  CutSprite: {fileID: 21300000, guid: 39d896c2a5f46e04091314c4069160b9, type: 3}
  FinishedSprite: {fileID: 21300000, guid: 546dd20699db97b4880308e58d832f24, type: 3}
  TypeIngredientsSprite:
  - {fileID: -1974970344591866264, guid: 67c4b95a214be614bbc1fc877e553785, type: 3}
  - {fileID: 4455432651586262806, guid: 67c4b95a214be614bbc1fc877e553785, type: 3}
  ing: {fileID: 376134519287557878, guid: f8397211a1347d04692eee6b2ad2f8e6, type: 3}
  IngredientStages:
  - {fileID: -1489816714685079609, guid: 67c4b95a214be614bbc1fc877e553785, type: 3}
  - {fileID: 4176377561732341943, guid: 67c4b95a214be614bbc1fc877e553785, type: 3}
  - {fileID: -6847391911979172158, guid: 67c4b95a214be614bbc1fc877e553785, type: 3}
  - {fileID: -4014126364463033851, guid: 67c4b95a214be614bbc1fc877e553785, type: 3}
  - {fileID: 4455432651586262806, guid: 67c4b95a214be614bbc1fc877e553785, type: 3}
