%YAML 1.1
%TAG !u! tag:unity3d.com,2011:
--- !u!1001 &5390332327308773081
PrefabInstance:
  m_ObjectHideFlags: 0
  serializedVersion: 2
  m_Modification:
    serializedVersion: 3
    m_TransformParent: {fileID: 0}
    m_Modifications:
    - target: {fileID: 162459731872183791, guid: 366cd7c01bc60e541807cddce01b5217,
        type: 3}
      propertyPath: m_LocalPosition.x
      value: 0
      objectReference: {fileID: 0}
    - target: {fileID: 162459731872183791, guid: 366cd7c01bc60e541807cddce01b5217,
        type: 3}
      propertyPath: m_LocalPosition.y
      value: 0
      objectReference: {fileID: 0}
    - target: {fileID: 162459731872183791, guid: 366cd7c01bc60e541807cddce01b5217,
        type: 3}
      propertyPath: m_LocalPosition.z
      value: 0
      objectReference: {fileID: 0}
    - target: {fileID: 162459731872183791, guid: 366cd7c01bc60e541807cddce01b5217,
        type: 3}
      propertyPath: m_LocalRotation.w
      value: 1
      objectReference: {fileID: 0}
    - target: {fileID: 162459731872183791, guid: 366cd7c01bc60e541807cddce01b5217,
        type: 3}
      propertyPath: m_LocalRotation.x
      value: 0
      objectReference: {fileID: 0}
    - target: {fileID: 162459731872183791, guid: 366cd7c01bc60e541807cddce01b5217,
        type: 3}
      propertyPath: m_LocalRotation.y
      value: 0
      objectReference: {fileID: 0}
    - target: {fileID: 162459731872183791, guid: 366cd7c01bc60e541807cddce01b5217,
        type: 3}
      propertyPath: m_LocalRotation.z
      value: 0
      objectReference: {fileID: 0}
    - target: {fileID: 162459731872183791, guid: 366cd7c01bc60e541807cddce01b5217,
        type: 3}
      propertyPath: m_LocalEulerAnglesHint.x
      value: 0
      objectReference: {fileID: 0}
    - target: {fileID: 162459731872183791, guid: 366cd7c01bc60e541807cddce01b5217,
        type: 3}
      propertyPath: m_LocalEulerAnglesHint.y
      value: 0
      objectReference: {fileID: 0}
    - target: {fileID: 162459731872183791, guid: 366cd7c01bc60e541807cddce01b5217,
        type: 3}
      propertyPath: m_LocalEulerAnglesHint.z
      value: 0
      objectReference: {fileID: 0}
    - target: {fileID: 2692583603225589669, guid: 366cd7c01bc60e541807cddce01b5217,
        type: 3}
      propertyPath: Types
      value: 11
      objectReference: {fileID: 0}
    - target: {fileID: 4369305030016155927, guid: 366cd7c01bc60e541807cddce01b5217,
        type: 3}
      propertyPath: Types
      value: 11
      objectReference: {fileID: 0}
    - target: {fileID: 6759517480932885693, guid: 366cd7c01bc60e541807cddce01b5217,
        type: 3}
      propertyPath: m_Sprite
      value: 
      objectReference: {fileID: 1402734252585701243, guid: 7eb8fabea60f77d4392b9f46e936f763,
        type: 3}
    - target: {fileID: 8586983491917760061, guid: 366cd7c01bc60e541807cddce01b5217,
        type: 3}
      propertyPath: m_Name
      value: PR_Catch_BowlingBall
      objectReference: {fileID: 0}
    - target: {fileID: 8586983491917760061, guid: 366cd7c01bc60e541807cddce01b5217,
        type: 3}
      propertyPath: m_TagString
      value: Untagged
      objectReference: {fileID: 0}
    - target: {fileID: 9044814837751840167, guid: 366cd7c01bc60e541807cddce01b5217,
        type: 3}
      propertyPath: m_Color.a
      value: 0.8509804
      objectReference: {fileID: 0}
    - target: {fileID: 9044814837751840167, guid: 366cd7c01bc60e541807cddce01b5217,
        type: 3}
      propertyPath: m_Color.b
      value: 0.30980393
      objectReference: {fileID: 0}
    - target: {fileID: 9044814837751840167, guid: 366cd7c01bc60e541807cddce01b5217,
        type: 3}
      propertyPath: m_Color.g
      value: 0.29411766
      objectReference: {fileID: 0}
    - target: {fileID: 9044814837751840167, guid: 366cd7c01bc60e541807cddce01b5217,
        type: 3}
      propertyPath: m_Color.r
      value: 0.7921569
      objectReference: {fileID: 0}
    m_RemovedComponents:
    - {fileID: 2469285834141940539, guid: 366cd7c01bc60e541807cddce01b5217, type: 3}
    m_RemovedGameObjects: []
    m_AddedGameObjects: []
    m_AddedComponents:
    - targetCorrespondingSourceObject: {fileID: 8806031319670821312, guid: 366cd7c01bc60e541807cddce01b5217,
        type: 3}
      insertIndex: -1
      addedObject: {fileID: 5590481520334602539}
  m_SourcePrefab: {fileID: 100100000, guid: 366cd7c01bc60e541807cddce01b5217, type: 3}
--- !u!1 &3529415168771151641 stripped
GameObject:
  m_CorrespondingSourceObject: {fileID: 8806031319670821312, guid: 366cd7c01bc60e541807cddce01b5217,
    type: 3}
  m_PrefabInstance: {fileID: 5390332327308773081}
  m_PrefabAsset: {fileID: 0}
--- !u!58 &5590481520334602539
CircleCollider2D:
  m_ObjectHideFlags: 0
  m_CorrespondingSourceObject: {fileID: 0}
  m_PrefabInstance: {fileID: 0}
  m_PrefabAsset: {fileID: 0}
  m_GameObject: {fileID: 3529415168771151641}
  m_Enabled: 1
  m_Density: 1
  m_Material: {fileID: 0}
  m_IncludeLayers:
    serializedVersion: 2
    m_Bits: 0
  m_ExcludeLayers:
    serializedVersion: 2
    m_Bits: 0
  m_LayerOverridePriority: 0
  m_ForceSendLayers:
    serializedVersion: 2
    m_Bits: 4294967295
  m_ForceReceiveLayers:
    serializedVersion: 2
    m_Bits: 4294967295
  m_ContactCaptureLayers:
    serializedVersion: 2
    m_Bits: 4294967295
  m_CallbackLayers:
    serializedVersion: 2
    m_Bits: 4294967295
  m_IsTrigger: 0
  m_UsedByEffector: 0
  m_UsedByComposite: 0
  m_Offset: {x: 0, y: 0}
  serializedVersion: 2
  m_Radius: 1
