﻿Effect,Character,Type,Label,Jump,Text(nl),Text(en)
,,Text,,,Jouw team besluit muziekinstrumenten te verzamelen die kinderen kunnen lenen of bespelen op de speelplaats. ,Your team decides to gather musical instruments that children can borrow or play in the playground. 
,,Text,,,Abdoul heeft speciale trommels meegebracht die van zijn opa waren. ,Abdoul has brought special drums that belonged to his grandfather.
,Ann,Text,,,Wow! kijk daar eens naar! ,Wow! look at that!
,Freddy,Text,,,"Hier, laten we dat eens proberen! ","Here, let's have a go at that!"
,,Text,,,Freddy begint heel hard op de trommels te slaan... ,Freddy starts banging very hard on the drums... 
,Abdoul,Text,,,Geef ze alsjeblieft terug aan mij... ,Please give them back to me... 
,Abdoul,Text,,,"Ik kan je leren hoe je moet spelen, maar alsjeblieft breek ze niet! ",I can teach you how to play but please don't break them! 
,Freddy,Text,,,Nee! Ik heb zoveel plezier! ,No! I'm having so much fun! 
,,Choice,,,NOODGEVAL! ER IS EEN PROBLEEM IN JE TEAM! WAT DOE JE <color=yellow><b>{$userName}</b></color>? ,EMERGENCY! THERE IS A PROBLEM IN YOUR TEAM! WHAT DO YOU DO <color=yellow><b>{$userName}</b></color>?
,,Option,,WORST,"Je denkt: ""Ik ken geen van deze kinderen goed. Ze spelen misschien maar wat, ik wil geen gedoe..."" ","You think: “I don't know any of these kids well. They might be playing around, I don’t want any drama…”"
,,Option,,GOOD,"Zeg ""Freddy, leg ze neer, je zou ze kunnen breken. Abdoul, leer ons hoe we ze moeten bespelen, alsjeblieft!"" ","Say ""Freddy, put them down, you may break them. Abdoul teach us how to play them, please!"""
,,Option,,POOR,"Je denkt: ""Wil Abdoul geholpen worden? Hij kan het misschien beter aan dan ik, als ik hem zou helpen."" ","You think: “Does Abdoul want to be helped? He might handle it better than I could do, if I helped him.”"
,Fatima,Text,CONTINUE,,"Dat zijn fantastische trommels, Abdoul. ","Those are fantastic drums, Abdoul."
,Fatima,Text,,,"Jongens, ofwel gebruiken jullie ze op de juiste manier of jullie kunnen andere instrumenten gebruiken! ","Guys, either you use them properly or you can use other instruments!"
,Fatima,Text,,,"Jullie willen ze toch niet breken, toch Freddy? ","You don't want to break them, right Freddy?"
,Freddy,Text,,,Nee... ,No...
,Andy,Text,,,"Hey, ik kan de bas bespelen! ","Hey, I can play the bass! "
,Andy,Text,,,"Abdoul, doe mee met de drums. Laten we wat muziek maken! ","Abdoul, join me with the drums. Let's play some music!"
,,Text,,STOP,PROBLEEM OPGELOST! LATEN WE BOUWEN! ,PROBLEM SORTED! LET'S BUILD!
,,Text,WORST,,Ziet Abdoul er gelukkig uit? Het plagen zou hem van streek kunnen maken. ,Does Abdoul look happy? The teasing could upset him. 
,,Text,,,De trommels zijn belangrijk voor hem. ,The drums are important to him. 
,,Text,,,Dit was de <color=color5>SLECHTSTE</color> keuze. Probeer iets dat het team bij elkaar houdt de volgende keer. ,This was the <color=color5>WORST</color> choice. Try something that helps the team stick together next time. 
,,Text,,CONTINUE,Hierdoor heeft jouw TEAM <color=color5>HEEL WEINIG</color> materialen verdiend voor het bouwen van de speeltuin. ,Because of this your TEAM earned <color=color5>VERY FEW</color> materials for building the playground. 
,,Text,POOR,,Misschien wil Abdoul de situatie zelf aanpakken... ,Maybe Abdoul wants to handle the situation by himself... 
,,Text,,,... maar je kunt nog steeds helpen door te laten zien dat je er voor hem bent! ,... but you can still help by showing you are there for him!
,,Text,,,Dit was een <color=color3>MATIGE</color> keuze. Probeer iets dat het team bij elkaar houdt de volgende keer. ,This was a <color=color3>POOR</color> choice. Try something that helps the team stick together next time. 
,,Text,,CONTINUE,Hierdoor heeft jouw TEAM slechts <color=color3>EEN PAAR</color> materialen verdiend voor het bouwen van de speeltuin. ,Because of this your TEAM earned only <color=color3>SOME</color> materials for building the playground. 
,,Text,GOOD,,<color=color4><b>UITSTEKEND!</b></color>. Je nam het op voor Abdoul! ,<color=color4><b>EXCELLENT!</b></color>. You took Abdoul's side!
,,Text,,,Je toonde je steun op een volwassen manier! ,You showed your support in a mature way!
,,Text,,,<color=color4><b>GEWELDIGE KEUZE</b></color>! Jouw keuze heeft het team geholpen bij elkaar te blijven! ,<color=color4><b>GREAT CHOICE</b></color>! Your choice helped the team stick together!
,,Text,,CONTINUE,Hierdoor heeft jouw TEAM <b><color=color4>VEEL</color></b> materialen verdiend voor het bouwen van de speeltuin.,Because of this your TEAM earned <b><color=color4>MANY</color></b> materials for building the playground. 

