%YAML 1.1
%TAG !u! tag:unity3d.com,2011:
--- !u!1001 &1152324161143069691
PrefabInstance:
  m_ObjectHideFlags: 0
  serializedVersion: 2
  m_Modification:
    m_TransformParent: {fileID: 0}
    m_Modifications:
    - target: {fileID: 100000, guid: b20518d45890e4be59ba82946f88026c, type: 3}
      propertyPath: m_Name
      value: PF_CH_Abdoul_sad
      objectReference: {fileID: 0}
    - target: {fileID: 400000, guid: b20518d45890e4be59ba82946f88026c, type: 3}
      propertyPath: m_RootOrder
      value: 0
      objectReference: {fileID: 0}
    - target: {fileID: 400000, guid: b20518d45890e4be59ba82946f88026c, type: 3}
      propertyPath: m_LocalPosition.x
      value: -265.84048
      objectReference: {fileID: 0}
    - target: {fileID: 400000, guid: b20518d45890e4be59ba82946f88026c, type: 3}
      propertyPath: m_LocalPosition.y
      value: -167.19402
      objectReference: {fileID: 0}
    - target: {fileID: 400000, guid: b20518d45890e4be59ba82946f88026c, type: 3}
      propertyPath: m_LocalPosition.z
      value: 3.1875
      objectReference: {fileID: 0}
    - target: {fileID: 400000, guid: b20518d45890e4be59ba82946f88026c, type: 3}
      propertyPath: m_LocalRotation.w
      value: 1
      objectReference: {fileID: 0}
    - target: {fileID: 400000, guid: b20518d45890e4be59ba82946f88026c, type: 3}
      propertyPath: m_LocalRotation.x
      value: -0
      objectReference: {fileID: 0}
    - target: {fileID: 400000, guid: b20518d45890e4be59ba82946f88026c, type: 3}
      propertyPath: m_LocalRotation.y
      value: -0
      objectReference: {fileID: 0}
    - target: {fileID: 400000, guid: b20518d45890e4be59ba82946f88026c, type: 3}
      propertyPath: m_LocalRotation.z
      value: -0
      objectReference: {fileID: 0}
    - target: {fileID: 400000, guid: b20518d45890e4be59ba82946f88026c, type: 3}
      propertyPath: m_LocalEulerAnglesHint.x
      value: 0
      objectReference: {fileID: 0}
    - target: {fileID: 400000, guid: b20518d45890e4be59ba82946f88026c, type: 3}
      propertyPath: m_LocalEulerAnglesHint.y
      value: 0
      objectReference: {fileID: 0}
    - target: {fileID: 400000, guid: b20518d45890e4be59ba82946f88026c, type: 3}
      propertyPath: m_LocalEulerAnglesHint.z
      value: 0
      objectReference: {fileID: 0}
    - target: {fileID: 11400000, guid: b20518d45890e4be59ba82946f88026c, type: 3}
      propertyPath: nameText
      value: Abdoul
      objectReference: {fileID: 0}
    - target: {fileID: 11400000, guid: b20518d45890e4be59ba82946f88026c, type: 3}
      propertyPath: nameColor.b
      value: 0.23589355
      objectReference: {fileID: 0}
    - target: {fileID: 11400000, guid: b20518d45890e4be59ba82946f88026c, type: 3}
      propertyPath: nameColor.g
      value: 0.65285766
      objectReference: {fileID: 0}
    - target: {fileID: 11400000, guid: b20518d45890e4be59ba82946f88026c, type: 3}
      propertyPath: nameColor.r
      value: 0.8773585
      objectReference: {fileID: 0}
    - target: {fileID: 11400000, guid: b20518d45890e4be59ba82946f88026c, type: 3}
      propertyPath: portraits.Array.size
      value: 1
      objectReference: {fileID: 0}
    - target: {fileID: 11400000, guid: b20518d45890e4be59ba82946f88026c, type: 3}
      propertyPath: portraits.Array.data[0]
      value: 
      objectReference: {fileID: 21300000, guid: 7510f18cfe295624cb6fe8dc15dc9003,
        type: 3}
    m_RemovedComponents: []
  m_SourcePrefab: {fileID: 100100000, guid: b20518d45890e4be59ba82946f88026c, type: 3}
